strict digraph "" {
	Q8TB52	[color=red];
	Q9UJX5	[color=red];
	Q8TB52 -> Q9UJX5	[label=10];
	Q9UBS8	[color=red];
	Q8TB52 -> Q9UBS8	[label=10];
	Q9H0M0	[color=red];
	Q8TB52 -> Q9H0M0	[label=10];
	Q9UJX5 -> Q8TB52	[label=10];
	Q9UJX5 -> Q9UBS8	[label=10];
	Q9UJX5 -> Q9H0M0	[label=10];
	Q9UBS8 -> Q8TB52	[label=10];
	Q9UBS8 -> Q9UJX5	[label=10];
	Q9UBS8 -> Q9H0M0	[label=10];
	Q9H0M0 -> Q8TB52	[label=10];
	Q9H0M0 -> Q9UJX5	[label=10];
	Q9H0M0 -> Q9UBS8	[label=10];
	Q9Y2B2;
	Q8IVW6;
	Q2TBE0;
	Q96PV0;
	Q8WWF8;
	Q8NEY4	[color=red];
	Q8NEY4 -> Q9UJX5	[label=2006];
	O15211	[color=red];
	Q8NEY4 -> O15211	[label=46];
	P51677	[color=red];
	Q8NEY4 -> P51677	[label=393120];
	Q8TCU6	[color=red];
	Q8NEY4 -> Q8TCU6	[label=272064];
	Q15811	[color=red];
	Q8NEY4 -> Q15811	[label=272064];
	P63104	[color=red];
	Q8NEY4 -> P63104	[label=595952];
	Q9BZM1	[color=red];
	Q8NEY4 -> Q9BZM1	[label=1482];
	P51677 -> Q9UJX5	[label=1687];
	P51677 -> O15211	[label=49];
	P51677 -> Q8TCU6	[label=674];
	P51677 -> Q15811	[label=674];
	P51677 -> P63104	[label=411];
	P51677 -> Q9BZM1	[label=1742];
	Q9H6R0;
	Q8NDW8;
	Q8IZD6;
	Q9BRC7	[color=red];
	Q9BRC7 -> Q9UJX5	[label=708];
	Q9BRC7 -> O15211	[label=18];
	Q9BRC7 -> P51677	[label=1872];
	Q9BRC7 -> Q8TCU6	[label=1344];
	Q9BRC7 -> Q15811	[label=1344];
	Q9BRC7 -> P63104	[label=8532];
	Q9BRC7 -> Q9BZM1	[label=676];
	Q9H0Q3;
	Q6FIF0;
	Q96JS3;
	Q96JJ6;
	P50914	[color=red];
	P63173	[color=red];
	P50914 -> P63173	[label=20];
	P42766	[color=red];
	P50914 -> P42766	[label=20];
	P63173 -> P50914	[label=20];
	P63173 -> P42766	[label=20];
	P42766 -> P50914	[label=20];
	P42766 -> P63173	[label=20];
	Q9BS91;
	P07737;
	Q9H4Z3;
	Q14749;
	Q9Y4E5;
	Q9BY10;
	Q8N3L3;
	O94956;
	Q9ULC3;
	Q53RY4;
	P13929;
	O60739;
	A8MVW0;
	P06746;
	Q4KMG9;
	Q08708;
}
